Date : 2021-02-23_22:15 
Cours du BTC : {'EUR': 39512.49} 
Cours du ETH : {'EUR': 1267.34} 
Cours du DOT : {'EUR': 26.95} 
Cours du CRO : {'EUR': 0.1248} 
Cours du LINK : {'EUR': 20.32} 
Cours du LTC : {'EUR': 140.54} 
Cours du EGLD : {'EUR': 87.14} 
Cours du AAVE : {'EUR': 288.02} 
Cours du ZIL : {'EUR': 0.08155} 
Cours du SNX : {'EUR': 14.17} 
Cours du THETA : {'EUR': 2.44} 
Cours du CHZ : {'EUR': 0.03259} 
